Inference and Simulation
…
```
#> # A tibble: 1,000 x 3
#>         ε     x      y
#>     <dbl> <dbl>  <dbl>
#>  1   8.78  9.53 127.  
#>  2  10.6   6.22  34.0 
#>  3  -1.64  5.32  13.6 
#>  4  -6.80  8.92  80.7 
#>  5   9.09  1.96  12.8 
#>  6 -27.3   8.84  57.0 
#>  7   9.45  2.18  13.4 
#>  8  -4.14  3.78   3.47
#>  9  -4.26  3.52   2.54
#> 10 -13.8   9.88 127.  
#> # … with 990 more rows
```
…
